System plików  rozm. użyte dost. %uż. zamont. na
dev             3,9G     0  3,9G   0% /dev
run             3,9G  1,1M  3,9G   1% /run
/dev/sda8        28G   17G  9,1G  66% /
tmpfs           3,9G     0  3,9G   0% /dev/shm
tmpfs           3,9G     0  3,9G   0% /sys/fs/cgroup
tmpfs           3,9G     0  3,9G   0% /tmp
/dev/sda9        32G   19G   12G  61% /home
tmpfs           794M   12K  794M   1% /run/user/1000
