              razem       użyte       wolne    dzielone   buf/cache    dostępne
Pamięć:        7,8G        255M        7,1G        1,1M        372M        7,3G
Wymiana:          0B          0B          0B
