Bus 002 Device 001: ID 1d6b:0003 Linux Foundation 3.0 root hub
Bus 001 Device 004: ID 174f:116a Syntek 
Bus 001 Device 003: ID 0bda:0821 Realtek Semiconductor Corp. 
Bus 001 Device 002: ID 093a:2532 Pixart Imaging, Inc. 
Bus 001 Device 001: ID 1d6b:0002 Linux Foundation 2.0 root hub
